…
``` r
#or

boot_straps = 
  tibble(
    strap_number = 1:1000,
    strap_sample = rerun(1000, boot_sample(sim_df_nonconst))
  )

boot_straps
```

    ## # A tibble: 1,000 x 2
    ##    strap_number strap_sample      
    ##           <int> <list>            
    ##  1            1 <tibble [250 × 3]>
    ##  2            2 <tibble [250 × 3]>
    ##  3            3 <tibble [250 × 3]>
    ##  4            4 <tibble [250 × 3]>
    ##  5            5 <tibble [250 × 3]>
    ##  6            6 <tibble [250 × 3]>
    ##  7            7 <tibble [250 × 3]>
    ##  8            8 <tibble [250 × 3]>
    ##  9            9 <tibble [250 × 3]>
    ## 10           10 <tibble [250 × 3]>
    ## # … with 990 more rows
…
``` r
boot_results =
  boot_straps %>% 
  mutate(
    models = map(.x = strap_sample, ~lm(y ~ x, data = .x)),
    results = map(models, broom::tidy)
  ) %>% 
  select(strap_number, results) %>% 
  unnest(results)
  
boot_results
```

    ## # A tibble: 2,000 x 6
    ##    strap_number term        estimate std.error statistic   p.value
    ##           <int> <chr>          <dbl>     <dbl>     <dbl>     <dbl>
    ##  1            1 (Intercept)     1.90    0.101       18.8 1.05e- 49
    ##  2            1 x               3.11    0.0774      40.2 1.27e-110
    ##  3            2 (Intercept)     1.87    0.0944      19.8 5.17e- 53
    ##  4            2 x               3.24    0.0667      48.6 1.13e-128
    ##  5            3 (Intercept)     2.01    0.115       17.5 2.87e- 45
    ##  6            3 x               2.96    0.0776      38.1 1.38e-105
    ##  7            4 (Intercept)     1.91    0.114       16.7 1.31e- 42
    ##  8            4 x               3.12    0.0818      38.1 1.03e-105
    ##  9            5 (Intercept)     1.92    0.109       17.7 8.68e- 46
    ## 10            5 x               3.05    0.0748      40.8 4.45e-112
    ## # … with 1,990 more rows
…
