…
manhattan_nest_lm_res =
  manhattan_airbnb %>% 
  nest(data = -neighborhood) %>% 
  mutate(
    models = map(.x = data, ~lm(price ~ stars + room_type, data = .x)),
    results = map(models, broom::tidy)) %>% 
  select(-data, -models) %>% 
  unnest(results)

manhattan_nest_lm_res
```

    ## # A tibble: 123 x 6
    ##    neighborhood      term                  estimate std.error statistic  p.value
    ##    <chr>             <chr>                    <dbl>     <dbl>     <dbl>    <dbl>
    ##  1 Battery Park City (Intercept)             -119.      366.     -0.324 7.48e- 1
    ##  2 Battery Park City stars                     74.0      74.2     0.997 3.27e- 1
    ##  3 Battery Park City room_typePrivate room   -126.       27.6    -4.56  8.11e- 5
    ##  4 Battery Park City room_typeShared room    -160.       56.3    -2.84  7.96e- 3
    ##  5 Chinatown         (Intercept)              337.       60.4     5.59  5.66e- 8
    ##  6 Chinatown         stars                    -27.8      13.0    -2.14  3.34e- 2
    ##  7 Chinatown         room_typePrivate room   -109.       11.5    -9.52  1.03e-18
    ##  8 Chinatown         room_typeShared room    -143.       93.2    -1.54  1.25e- 1
    ##  9 Chelsea           (Intercept)              477.      135.      3.53  4.38e- 4
    ## 10 Chelsea           stars                    -44.5      27.3    -1.63  1.04e- 1
    ## # … with 113 more rows
…
